<?xml version="1.0" encoding="utf-8"?>
<!-- Generator: Adobe Illustrator 16.0.0, SVG Export Plug-In . SVG Version: 6.00 Build 0)  -->
<!DOCTYPE svg PUBLIC "-//W3C//DTD SVG 1.1//EN" "http://www.w3.org/Graphics/SVG/1.1/DTD/svg11.dtd">
<svg version="1.1" id="Layer_1" xmlns="http://www.w3.org/2000/svg" xmlns:xlink="http://www.w3.org/1999/xlink" x="0px" y="0px"
	 width="38px" height="30px" viewBox="0 0 38 30" enable-background="new 0 0 38 30" xml:space="preserve">
<g display="none">
	<path display="inline" fill="#999999" d="M36.5,24.529V3.881c0-1.161-0.939-2.101-2.1-2.101H3.6c-1.16,0-2.1,0.939-2.1,2.101
		v20.648H36.5 M5,5.28h28v15.75H5V5.28z M40,26.281v1.4c0,1.16-0.94,2.098-2.101,2.098H0.1c-1.16,0-2.1-0.938-2.1-2.098v-1.4h17.5
		c0,0.483,0.393,0.873,0.875,0.873h5.25c0.482,0,0.875-0.39,0.875-0.873H40z"/>
</g>
<g>
	<path fill-rule="evenodd" clip-rule="evenodd" fill="#999999" d="M26.898,7.9v4.74h7.451c0,0-1.484-2.594-2.254-3.943
		C31.812,8.203,31.291,7.9,30.723,7.9C29.346,7.9,26.898,7.9,26.898,7.9 M12.68,7.9H0.041V4.74h12.64V3.16h-7.9V1.58
		C4.78,0.708,5.488,0,6.36,0c4.072,0,10.148,0,14.22,0c0.871,0,1.58,0.708,1.58,1.58v15.8H4.78v-4.74h-3.16V9.48h11.06V7.9z
		 M28.48,21.803c1.043,0,1.896,0.852,1.896,1.896c0,1.046-0.854,1.897-1.896,1.897c-1.047,0-1.896-0.852-1.896-1.897
		C26.584,22.654,27.434,21.803,28.48,21.803z M12.68,21.803c1.046,0,1.896,0.852,1.896,1.896c0,1.046-0.85,1.897-1.896,1.897
		c-1.046,0-1.896-0.852-1.896-1.897C10.784,22.654,11.634,21.803,12.68,21.803z M7.94,23.699H6.36c-0.872,0-1.58-0.708-1.58-1.579
		c0-1.381,0-3.16,0-3.16h18.958V4.74c0,0,5.016,0,7.375,0c1.764,0,2.527,0.91,3.059,1.75c0.938,1.485,2.428,3.842,3.332,5.336
		c0.297,0.493,0.455,1.059,0.455,1.636c0,1.875,0,4.704,0,7.078c0,1.771-1.15,3.16-3.16,3.16h-1.58c0,2.616-2.123,4.74-4.738,4.74
		c-2.617,0-4.742-2.124-4.742-4.74H17.42c0,2.616-2.123,4.74-4.74,4.74C10.064,28.439,7.94,26.315,7.94,23.699z"/>
</g>
</svg>
